Nächste Schritte
…
<img src="https://github.com/rstudio/hex-stickers/raw/master/PNG/rvest.png" height="200px" /><img src="https://github.com/rstudio/hex-stickers/raw/master/PNG/haven.png" height="200px" /><img src="https://github.com/rstudio/hex-stickers/raw/master/PNG/readxl.png" height="200px" /><img src="https://github.com/rstudio/hex-stickers/raw/master/PNG/lubridate.png" height="200px" /><img src="https://pbs.twimg.com/media/DeacLnGU0AAlmS9.png" height="200px" />

---

# Web Scraping

```r
# Tabelle laden von Wikipedia (Pakete nicht vergessen)
read_html("https://en.wikipedia.org/wiki/R_(programming_language)") %>%
  html_node(xpath = '//*[@id="mw-content-text"]/div[1]/table[2]') %>%
  html_table() %>% as_tibble()
```

```
## # A tibble: 22 × 3
##    Release Date        Description                                                        
##    <chr>   <chr>       <chr>                                                              
##  1 0.16    ""          "This is the last alpha version developed primarily by Ihaka and G…
##  2 0.49    "1997-04-2… "This is the oldest source release which is currently available on…
##  3 0.60    "1997-12-0… "R becomes an official part of the GNU Project. The code is hosted…
##  4 0.65.1  "1999-10-0… "First versions of update.packages and install.packages functions …
##  5 1.0     "2000-02-2… "Considered by its developers stable enough for production use.[57…
##  6 1.4     "2001-12-1… "S4 methods are introduced and the first version for Mac OS X is m…
##  7 1.8     "2003-10-0… "Introduced a flexible condition handling mechanism for signalling…
##  8 2.0     "2004-10-0… "Introduced lazy loading, which enables fast loading of data with …
##  9 2.1     "2005-04-1… "Support for UTF-8 encoding, and the beginnings of internationaliz…
## 10 2.6.2   "2008-02-0… "Last version to support Windows 95, 98, Me and NT 4.0[58]"        
## # … with 12 more rows
```
…
